{
  "id": 240462,
  "num_rows": 1,
  "file_format": "xml",
  "name": "SEM_Data",
  "xml_root_element": "OPI",
  "xml_record_element": "OPIVOY",
  "columns": [
    {
      "name": "MSG_ID",
      "null_percentage": 0,
      "type": "Number",
      "min": 0,
      "max": 999999,
      "decimals": 0,
      "formula": ""
    },
    {
      "name": "VOYAGECODE",
      "null_percentage": 0,
      "type": "Digit Sequence",
      "format": "^^###",
      "formula": ""
    },
    {
      "name": "ORIGINALVOYAGECODE",
      "null_percentage": 0,
      "type": "Digit Sequence",
      "format": "^^###",
      "formula": ""
    },
    {
      "name": "DEPARTUREDATETIME",
      "null_percentage": 0,
      "type": "Datetime",
      "min": "4/30/2019",
      "max": "4/30/2020",
      "format": "%Y-%m-%dT%H:%M:%SZ",
      "formula": ""
    },
    {
      "name": "DEPARTUREDATETIMEUTC",
      "null_percentage": 90,
      "type": "Datetime",
      "min": "4/30/2019",
      "max": "4/30/2020",
      "format": "%Y-%m-%dT%H:%M:%SZ",
      "formula": ""
    },
    {
      "name": "SENTDATETIME",
      "null_percentage": 80,
      "type": "Datetime",
      "min": "4/30/2019",
      "max": "4/30/2020",
      "format": "%Y-%m-%dT%H:%M:%SZ",
      "formula": ""
    },
    {
      "name": "PASSENGERCOUNT",
      "null_percentage": 0,
      "type": "Number",
      "min": 1,
      "max": 100,
      "decimals": 0,
      "formula": ""
    },
    {
      "name": "INOUT",
      "null_percentage": 0,
      "type": "Digit Sequence",
      "format": "#^",
      "formula": ""
    },
    {
      "name": "MANIFESTTYPE",
      "null_percentage": 0,
      "type": "Custom List",
      "values": [
        "A",
        "B",
        "C"
      ],
      "selectionStyle": "random",
      "distribution": null,
      "formula": ""
    },
    {
      "name": "ARRIVALDATETIME",
      "null_percentage": 0,
      "type": "Datetime",
      "min": "4/30/2019",
      "max": "4/30/2020",
      "format": "%Y-%m-%dT%H:%M:%SZ",
      "formula": ""
    },
    {
      "name": "ARRIVALDATETIMEUTC",
      "null_percentage": 89,
      "type": "Datetime",
      "min": "4/30/2019",
      "max": "4/30/2020",
      "format": "%Y-%m-%dT%H:%M:%SZ",
      "formula": ""
    },
    {
      "name": "VOYAGETYPE",
      "null_percentage": 0,
      "type": "Custom List",
      "values": [
        "D",
        "E",
        "F"
      ],
      "selectionStyle": "random",
      "distribution": null,
      "formula": ""
    },
    {
      "name": "EVENTCODE",
      "null_percentage": 0,
      "type": "Custom List",
      "values": [
        "CI",
        "DI",
        "CA",
        "DA"
      ],
      "selectionStyle": "random",
      "distribution": null,
      "formula": ""
    },
    {
      "name": "ARRPORT.ARRIVALPORTORDINAL",
      "null_percentage": 0,
      "type": "Character Sequence",
      "format": "##@",
      "formula": ""
    },
    {
      "name": "ARRPORT.ADDRESSLINE1",
      "null_percentage": 0,
      "type": "Street Address",
      "formula": ""
    },
    {
      "name": "ARRPORT.ADDRESSLINE2",
      "null_percentage": 0,
      "type": "Digit Sequence",
      "format": "^@@@@@@@@@",
      "formula": ""
    },
    {
      "name": "ARRPORT.ADDRESSLINE3",
      "null_percentage": 20,
      "type": "Digit Sequence",
      "format": "^@@@@@@@@@",
      "formula": ""
    },
    {
      "name": "ARRPORT.ADDRESSLINE4",
      "null_percentage": 20,
      "type": "City",
      "formula": ""
    },
    {
      "name": "ARRPORT.ADDRESSLINE5",
      "null_percentage": 70,
      "type": "Country",
      "countries": [

      ],
      "formula": ""
    },
    {
      "name": "ARRPORT.POSTCODE",
      "null_percentage": 0,
      "type": "Postal Code",
      "formula": ""
    },
    {
      "name": "ARRPORT.COUNTRY",
      "null_percentage": 0,
      "type": "Country",
      "countries": [

      ],
      "formula": ""
    },
    {
      "name": "ARRPORT.PORTCODE",
      "null_percentage": 0,
      "type": "Dataset Column",
      "dataset": "Airport Codes",
      "column": "ID",
      "selectionStyle": "random",
      "formula": ""
    },
    {
      "name": "ARRPORT.IATACODE",
      "null_percentage": 0,
      "type": "Dataset Column",
      "dataset": "Airport Codes",
      "column": "IATA",
      "selectionStyle": null,
      "formula": ""
    },
    {
      "name": "ARRPORT.ICAOCODE",
      "null_percentage": 0,
      "type": "Dataset Column",
      "dataset": "Airport Codes",
      "column": "ICAO",
      "selectionStyle": null,
      "formula": ""
    },
    {
      "name": "ARRPORT.UNLOCODE",
      "null_percentage": 80,
      "type": "Digit Sequence",
      "format": "^@@@@###",
      "formula": ""
    },
    {
      "name": "ARRPORT.LATITUDE",
      "null_percentage": 0,
      "type": "Dataset Column",
      "dataset": "Airport Codes",
      "column": "LATITUDE",
      "selectionStyle": null,
      "formula": ""
    },
    {
      "name": "ARRPORT.LONGITUDE",
      "null_percentage": 0,
      "type": "Dataset Column",
      "dataset": "Airport Codes",
      "column": "LONGITUDE",
      "selectionStyle": null,
      "formula": ""
    },
    {
      "name": "ARRPORT.DESCRIPTION",
      "null_percentage": 0,
      "type": "Dataset Column",
      "dataset": "Airport Codes",
      "column": "TYPE",
      "selectionStyle": null,
      "formula": ""
    },
    {
      "name": "ARRPORT.BOOKS",
      "null_percentage": 0,
      "type": "Repeating Element",
      "minElements": 1,
      "maxElements": 5,
      "formula": ""
    },
    {
      "name": "ARRPORT.BOOKS.BOOKINGREFERENCE",
      "null_percentage": 0,
      "type": "Digit Sequence",
      "format": "#",
      "formula": ""
    },
    {
      "name": "ARRPORT.BOOKS.BOOKINGVER",
      "null_percentage": 0,
      "type": "Digit Sequence",
      "format": "#",
      "formula": ""
    },
    {
      "name": "ARRPORT.BOOKS.CREATIONDATE",
      "null_percentage": 0,
      "type": "Datetime",
      "min": "4/30/2019",
      "max": "4/30/2020",
      "format": "%Y-%m-%dT%H:%M:%SZ",
      "formula": ""
    },
    {
      "name": "ARRPORT.BOOKS.ACCOMPANIEDBYINFANT",
      "null_percentage": 80,
      "type": "Custom List",
      "values": [
        "Y"
      ],
      "selectionStyle": "random",
      "distribution": null,
      "formula": ""
    },
    {
      "name": "ARRPORT.BOOKS.RECEIVEDDATE",
      "null_percentage": 0,
      "type": "Datetime",
      "min": "4/30/2019",
      "max": "4/30/2020",
      "format": "%Y-%m-%dT%H:%M:%SZ",
      "formula": ""
    },
    {
      "name": "ARRPORT.BOOKS.MODIFIEDDATE",
      "null_percentage": 70,
      "type": "Datetime",
      "min": "4/30/2019",
      "max": "4/30/2020",
      "format": "%Y-%m-%dT%H:%M:%SZ",
      "formula": ""
    },
    {
      "name": "ARRPORT.BOOKS.MASTERBOOKINGREFERENCE",
      "null_percentage": 70,
      "type": "Digit Sequence",
      "format": "#########",
      "formula": ""
    },
    {
      "name": "ARRPORT.BOOKS.UNACCOMPANIEDMINOR",
      "null_percentage": 70,
      "type": "Custom List",
      "values": [
        "Y"
      ],
      "selectionStyle": "random",
      "distribution": null,
      "formula": ""
    },
    {
      "name": "ARRPORT.BOOKS.BOOKINGDATE",
      "null_percentage": 0,
      "type": "Datetime",
      "min": "4/30/2019",
      "max": "4/30/2020",
      "format": "%Y-%m-%dT%H:%M:%SZ",
      "formula": ""
    },
    {
      "name": "ARRPORT.BOOKS.SPLITBOOKING",
      "null_percentage": 0,
      "type": "Digit Sequence",
      "format": "#",
      "formula": ""
    },
    {
      "name": "ARRPORT.BOOKS.TRAVELAGENTNAME",
      "null_percentage": 0,
      "type": "Company Name",
      "formula": ""
    },
    {
      "name": "ARRPORT.BOOKS.CONTACTS",
      "null_percentage": 0,
      "type": "Repeating Element",
      "minElements": 1,
      "maxElements": 5,
      "formula": ""
    },
    {
      "name": "ARRPORT.BOOKS.CONTACTS.CONTACTTEXT",
      "null_percentage": 0,
      "type": "Sentences",
      "min": 1,
      "max": 10,
      "formula": ""
    },
    {
      "name": "ARRPORT.BOOKS.CONTACTS.CONTACTSORDINAL",
      "null_percentage": 0,
      "type": "Digit Sequence",
      "format": "#",
      "formula": ""
    },
    {
      "name": "ARRPORT.BOOKS.CONTACTS.CONTACTTYPE",
      "null_percentage": 0,
      "type": "Digit Sequence",
      "format": "#",
      "formula": ""
    },
    {
      "name": "ARRPORT.BOOKS.CONTACTS.CONTACTSEQ",
      "null_percentage": 0,
      "type": "Digit Sequence",
      "format": "#",
      "formula": ""
    },
    {
      "name": "ARRPORT.BOOKS.ITIN.SEGMENTARRIVALDATETIME",
      "null_percentage": 0,
      "type": "Datetime",
      "min": "4/30/2019",
      "max": "4/30/2020",
      "format": "%Y-%m-%dT%H:%M:%SZ",
      "formula": ""
    },
    {
      "name": "ARRPORT.BOOKS.ITIN.BOOKINGSITINERARY_ORDINAL",
      "null_percentage": 0,
      "type": "Digit Sequence",
      "format": "###",
      "formula": ""
    },
    {
      "name": "ARRPORT.BOOKS.ITIN.BOOKINGSSTATUS",
      "null_percentage": 0,
      "type": "Custom List",
      "values": [
        "Approved",
        "Confirmed",
        "Cancelled",
        "In Progress"
      ],
      "selectionStyle": "random",
      "distribution": null,
      "formula": ""
    },
    {
      "name": "ARRPORT.BOOKS.ITIN.NUMBERINPARTY",
      "null_percentage": 0,
      "type": "Number",
      "min": 0,
      "max": 300,
      "decimals": 0,
      "formula": ""
    },
    {
      "name": "ARRPORT.BOOKS.ITIN.SEGMENTDEPARTUREDATETIME",
      "null_percentage": 0,
      "type": "Datetime",
      "min": "4/30/2019",
      "max": "4/30/2020",
      "format": "%Y-%m-%dT%H:%M:%SZ",
      "formula": ""
    },
    {
      "name": "ARRPORT.BOOKS.ITIN.SEGMENTSTATUS",
      "null_percentage": 0,
      "type": "Custom List",
      "values": [
        "Approved",
        "Confirmed",
        "Cancelled",
        "Error",
        "In Progress"
      ],
      "selectionStyle": "random",
      "distribution": null,
      "formula": ""
    },
    {
      "name": "ARRPORT.BOOKS.ITIN.SEGMENTVOYAGECODE",
      "null_percentage": 0,
      "type": "Digit Sequence",
      "format": "^^###",
      "formula": ""
    },
    {
      "name": "ARRPORT.BOOKS.ITIN.CLASSOFTRAVEL",
      "null_percentage": 0,
      "type": "Custom List",
      "values": [
        "1st Class",
        "Business",
        "Economy",
        "Economy Plus"
      ],
      "selectionStyle": "random",
      "distribution": null,
      "formula": ""
    },
    {
      "name": "ARRPORT.BOOKS.ITIN.ITINERARYSEQ",
      "null_percentage": 0,
      "type": "Digit Sequence",
      "format": "###",
      "formula": ""
    },
    {
      "name": "ARRPORT.BOOKS.ITIN.SEGARRPORT.SEGMENTARRIVALPORT_ORDINAL",
      "null_percentage": 0,
      "type": "Datetime",
      "min": "4/30/2019",
      "max": "4/30/2020",
      "format": "%Y-%m-%dT%H:%M:%SZ",
      "formula": ""
    },
    {
      "name": "ARRPORT.BOOKS.ITIN.SEGARRPORT.ADDRESSLINE1",
      "null_percentage": 0,
      "type": "Street Address",
      "formula": ""
    },
    {
      "name": "ARRPORT.BOOKS.ITIN.SEGARRPORT.ADDRESSLINE2",
      "null_percentage": 0,
      "type": "Digit Sequence",
      "format": "^@@@@@@@@@",
      "formula": ""
    },
    {
      "name": "ARRPORT.BOOKS.ITIN.SEGARRPORT.ADDRESSLINE3",
      "null_percentage": 0,
      "type": "Digit Sequence",
      "format": "^@@@@@@@@@",
      "formula": ""
    },
    {
      "name": "ARRPORT.BOOKS.ITIN.SEGARRPORT.ADDRESSLINE4",
      "null_percentage": 20,
      "type": "City",
      "formula": ""
    },
    {
      "name": "ARRPORT.BOOKS.ITIN.SEGARRPORT.ADDRESSLINE5",
      "null_percentage": 70,
      "type": "Country",
      "countries": [

      ],
      "formula": ""
    },
    {
      "name": "ARRPORT.BOOKS.ITIN.SEGARRPORT.POSTCODE",
      "null_percentage": 0,
      "type": "Postal Code",
      "formula": ""
    },
    {
      "name": "ARRPORT.BOOKS.ITIN.SEGARRPORT.COUNTRY",
      "null_percentage": 0,
      "type": "Country",
      "countries": [

      ],
      "formula": ""
    },
    {
      "name": "ARRPORT.BOOKS.ITIN.SEGARRPORT.PORTCODE",
      "null_percentage": 0,
      "type": "Dataset Column",
      "dataset": "Airport Codes",
      "column": "ID",
      "selectionStyle": "random",
      "formula": ""
    },
    {
      "name": "ARRPORT.BOOKS.ITIN.SEGARRPORT.IATACODE",
      "null_percentage": 0,
      "type": "Dataset Column",
      "dataset": "Airport Codes",
      "column": "IATA",
      "selectionStyle": null,
      "formula": ""
    },
    {
      "name": "ARRPORT.BOOKS.ITIN.SEGARRPORT.ICAOCODE",
      "null_percentage": 0,
      "type": "Dataset Column",
      "dataset": "Airport Codes",
      "column": "ICAO",
      "selectionStyle": null,
      "formula": ""
    },
    {
      "name": "ARRPORT.BOOKS.ITIN.SEGARRPORT.UNLOCDE",
      "null_percentage": 0,
      "type": "Digit Sequence",
      "format": "^@@@@###",
      "formula": ""
    },
    {
      "name": "ARRPORT.BOOKS.ITIN.SEGARRPORT.LATITUDE",
      "null_percentage": 0,
      "type": "Dataset Column",
      "dataset": "Airport Codes",
      "column": "LATITUDE",
      "selectionStyle": null,
      "formula": ""
    },
    {
      "name": "ARRPORT.BOOKS.ITIN.SEGARRPORT.LONGITUDE",
      "null_percentage": 0,
      "type": "Dataset Column",
      "dataset": "Airport Codes",
      "column": "LONGITUDE",
      "selectionStyle": null,
      "formula": ""
    },
    {
      "name": "ARRPORT.BOOKS.ITIN.SEGARRPORT.DESCRIPTION",
      "null_percentage": 0,
      "type": "Dataset Column",
      "dataset": "Airport Codes",
      "column": "TYPE",
      "selectionStyle": "random",
      "formula": ""
    },
    {
      "name": "ARRPORT.BOOKS.ITIN.SEGDEPPORT.SEGMENTARRIVALPORT_ORDINAL",
      "null_percentage": 0,
      "type": "Datetime",
      "min": "4/30/2019",
      "max": "4/30/2020",
      "format": "%Y-%m-%dT%H:%M:%SZ",
      "formula": ""
    },
    {
      "name": "ARRPORT.BOOKS.ITIN.SEGDEPPORT.ADDRESSLINE1",
      "null_percentage": 0,
      "type": "Street Address",
      "formula": ""
    },
    {
      "name": "ARRPORT.BOOKS.ITIN.SEGDEPPORT.ADDRESSLINE2",
      "null_percentage": 0,
      "type": "Digit Sequence",
      "format": "^@@@@@@@@@",
      "formula": ""
    },
    {
      "name": "ARRPORT.BOOKS.ITIN.SEGDEPPORT.ADDRESSLINE3",
      "null_percentage": 0,
      "type": "Digit Sequence",
      "format": "^@@@@@@@@@",
      "formula": ""
    },
    {
      "name": "ARRPORT.BOOKS.ITIN.SEGDEPPORT.ADDRESSLINE4",
      "null_percentage": 20,
      "type": "City",
      "formula": ""
    },
    {
      "name": "ARRPORT.BOOKS.ITIN.SEGDEPPORT.ADDRESSLINE5",
      "null_percentage": 20,
      "type": "Country",
      "countries": [

      ],
      "formula": ""
    },
    {
      "name": "ARRPORT.BOOKS.ITIN.SEGDEPPORT.POSTCODE",
      "null_percentage": 0,
      "type": "Postal Code",
      "formula": ""
    },
    {
      "name": "ARRPORT.BOOKS.ITIN.SEGDEPPORT.COUNTRY",
      "null_percentage": 0,
      "type": "Country",
      "countries": [

      ],
      "formula": ""
    },
    {
      "name": "ARRPORT.BOOKS.ITIN.SEGDEPPORT.PORTCODE",
      "null_percentage": 0,
      "type": "Dataset Column",
      "dataset": "Airport Codes",
      "column": "ID",
      "selectionStyle": "random",
      "formula": ""
    },
    {
      "name": "ARRPORT.BOOKS.ITIN.SEGDEPPORT.IATACODE",
      "null_percentage": 0,
      "type": "Dataset Column",
      "dataset": "Airport Codes",
      "column": "IATA",
      "selectionStyle": null,
      "formula": ""
    },
    {
      "name": "ARRPORT.BOOKS.ITIN.SEGDEPPORT.ICAOCODE",
      "null_percentage": 0,
      "type": "Dataset Column",
      "dataset": "Airport Codes",
      "column": "ICAO",
      "selectionStyle": null,
      "formula": ""
    },
    {
      "name": "ARRPORT.BOOKS.ITIN.SEGDEPPORT.UNLOCODE",
      "null_percentage": 0,
      "type": "Digit Sequence",
      "format": "^@@@@###",
      "formula": ""
    },
    {
      "name": "ARRPORT.BOOKS.ITIN.SEGDEPPORT.LATITUDE",
      "null_percentage": 0,
      "type": "Dataset Column",
      "dataset": "Airport Codes",
      "column": "LATITUDE",
      "selectionStyle": null,
      "formula": ""
    },
    {
      "name": "ARRPORT.BOOKS.ITIN.SEGDEPPORT.LONGITUDE",
      "null_percentage": 0,
      "type": "Dataset Column",
      "dataset": "Airport Codes",
      "column": "LONGITUDE",
      "selectionStyle": null,
      "formula": ""
    },
    {
      "name": "ARRPORT.BOOKS.ITIN.SEGDEPPORT.DESCRIPTION",
      "null_percentage": 0,
      "type": "Dataset Column",
      "dataset": "Airport Codes",
      "column": "TYPE",
      "selectionStyle": null,
      "formula": ""
    },
    {
      "name": "ARRPORT.BOOKS.PASSGS.PASSENGERS_ORDINAL",
      "null_percentage": 0,
      "type": "Digit Sequence",
      "format": "##",
      "formula": ""
    },
    {
      "name": "ARRPORT.BOOKS.PASSGS.BOOKINGREFERENCE",
      "null_percentage": 0,
      "type": "Digit Sequence",
      "format": "######",
      "formula": ""
    },
    {
      "name": "ARRPORT.BOOKS.PASSGS.GENDER",
      "null_percentage": 0,
      "type": "Gender (abbrev)",
      "formula": ""
    },
    {
      "name": "ARRPORT.BOOKS.PASSGS.NATIONALITY",
      "null_percentage": 0,
      "type": "Race",
      "formula": ""
    },
    {
      "name": "ARRPORT.BOOKS.PASSGS.PASSENGERTYPE",
      "null_percentage": 0,
      "type": "Custom List",
      "values": [
        "Adult",
        "Child"
      ],
      "selectionStyle": "random",
      "distribution": null,
      "formula": ""
    },
    {
      "name": "ARRPORT.BOOKS.PASSGS.LASTNAME",
      "null_percentage": 0,
      "type": "Last Name",
      "formula": ""
    },
    {
      "name": "ARRPORT.BOOKS.PASSGS.FIRSTNAME",
      "null_percentage": 0,
      "type": "First Name",
      "formula": ""
    },
    {
      "name": "ARRPORT.BOOKS.PASSGS.SECONDNAME",
      "null_percentage": 80,
      "type": "First Name",
      "formula": ""
    },
    {
      "name": "ARRPORT.BOOKS.PASSGS.DATEOFBIRTH",
      "null_percentage": 0,
      "type": "Datetime",
      "min": "01/01/1900",
      "max": "4/30/2020",
      "format": "%d.%m.%Y",
      "formula": ""
    },
    {
      "name": "ARRPORT.BOOKS.PASSGS.RANKRATING",
      "null_percentage": 0,
      "type": "Digit Sequence",
      "format": "#@$-##",
      "formula": ""
    },
    {
      "name": "ARRPORT.BOOKS.PASSGS.CREWGOODS",
      "null_percentage": 0,
      "type": "Digit Sequence",
      "format": "#^*%%",
      "formula": ""
    },
    {
      "name": "ARRPORT.BOOKS.PASSGS.CREWGOODDETAILS",
      "null_percentage": 0,
      "type": "Sentences",
      "min": 1,
      "max": 10,
      "formula": ""
    },
    {
      "name": "ARRPORT.BOOKS.PASSGS.PURPOSEOFVISIT",
      "null_percentage": 0,
      "type": "Custom List",
      "values": [
        "1",
        "2",
        "3",
        "4"
      ],
      "selectionStyle": "random",
      "distribution": null,
      "formula": ""
    },
    {
      "name": "ARRPORT.BOOKS.PASSGS.DURATIONOFSTAY",
      "null_percentage": 20,
      "type": "Custom List",
      "values": [
        "1 week",
        "1 day"
      ],
      "selectionStyle": "random",
      "distribution": null,
      "formula": ""
    },
    {
      "name": "ARRPORT.BOOKS.PASSGS.VISAHOLDER",
      "null_percentage": 0,
      "type": "Boolean",
      "formula": ""
    },
    {
      "name": "ARRPORT.BOOKS.PASSGS.CABIN",
      "null_percentage": 0,
      "type": "Digit Sequence",
      "format": "#",
      "formula": ""
    },
    {
      "name": "ARRPORT.BOOKS.PASSGS.PASSTATUS",
      "null_percentage": 0,
      "type": "Custom List",
      "values": [
        "AB",
        "BC",
        "CD",
        "EF"
      ],
      "selectionStyle": "random",
      "distribution": null,
      "formula": ""
    },
    {
      "name": "ARRPORT.BOOKS.PASSGS.FREQUENTTRAVELLERNO",
      "null_percentage": 0,
      "type": "Digit Sequence",
      "format": "####^^^",
      "formula": ""
    },
    {
      "name": "ARRPORT.BOOKS.PASSGS.PASSENGERSEQ",
      "null_percentage": 0,
      "type": "Digit Sequence",
      "format": "###",
      "formula": ""
    },
    {
      "name": "ARRPORT.BOOKS.PASSGS.UPRI",
      "null_percentage": 0,
      "type": "Digit Sequence",
      "format": "#######",
      "formula": ""
    },
    {
      "name": "ARRPORT.BOOKS.PASSGS.DISPORT.DISEMBARAKTIONPORT_ORDINAL",
      "null_percentage": 0,
      "type": "Digit Sequence",
      "format": "###",
      "formula": ""
    },
    {
      "name": "ARRPORT.BOOKS.PASSGS.DISPORT.ADDRESSLINE1",
      "null_percentage": 0,
      "type": "Street Address",
      "formula": ""
    },
    {
      "name": "ARRPORT.BOOKS.PASSGS.DISPORT.ADDRESSLINE2",
      "null_percentage": 0,
      "type": "Digit Sequence",
      "format": "^@@@@@@@@@",
      "formula": ""
    },
    {
      "name": "ARRPORT.BOOKS.PASSGS.DISPORT.ADDRESSLINE3",
      "null_percentage": 0,
      "type": "Digit Sequence",
      "format": "^@@@@@@@@@",
      "formula": ""
    },
    {
      "name": "ARRPORT.BOOKS.PASSGS.DISPORT.ADDRESSLINE4",
      "null_percentage": 0,
      "type": "City",
      "formula": ""
    },
    {
      "name": "ARRPORT.BOOKS.PASSGS.DISPORT.ADDRESSLINE5",
      "null_percentage": 0,
      "type": "Country",
      "countries": [

      ],
      "formula": ""
    },
    {
      "name": "ARRPORT.BOOKS.PASSGS.DISPORT.POSTCODE",
      "null_percentage": 0,
      "type": "Postal Code",
      "formula": ""
    },
    {
      "name": "ARRPORT.BOOKS.PASSGS.DISPORT.COUNTRY",
      "null_percentage": 0,
      "type": "Country",
      "countries": [

      ],
      "formula": ""
    },
    {
      "name": "ARRPORT.BOOKS.PASSGS.DISPORT.PORTCODE",
      "null_percentage": 0,
      "type": "Dataset Column",
      "dataset": "Airport Codes",
      "column": "ID",
      "selectionStyle": "random",
      "formula": ""
    },
    {
      "name": "ARRPORT.BOOKS.PASSGS.DISPORT.IATACODE",
      "null_percentage": 0,
      "type": "Dataset Column",
      "dataset": "Airport Codes",
      "column": "IATA",
      "selectionStyle": null,
      "formula": ""
    },
    {
      "name": "ARRPORT.BOOKS.PASSGS.DISPORT.ICAOCODE",
      "null_percentage": 0,
      "type": "Dataset Column",
      "dataset": "Airport Codes",
      "column": "ICAO",
      "selectionStyle": null,
      "formula": ""
    },
    {
      "name": "ARRPORT.BOOKS.PASSGS.DISPORT.UNLOCODE",
      "null_percentage": 0,
      "type": "Digit Sequence",
      "format": "^@@@@###",
      "formula": ""
    },
    {
      "name": "ARRPORT.BOOKS.PASSGS.DISPORT.LATITUDE",
      "null_percentage": 0,
      "type": "Dataset Column",
      "dataset": "Airport Codes",
      "column": "LATITUDE",
      "selectionStyle": null,
      "formula": ""
    },
    {
      "name": "ARRPORT.BOOKS.PASSGS.DISPORT.LONGITUDE",
      "null_percentage": 0,
      "type": "Dataset Column",
      "dataset": "Airport Codes",
      "column": "LONGITUDE",
      "selectionStyle": null,
      "formula": ""
    },
    {
      "name": "ARRPORT.BOOKS.PASSGS.DISPORT.DESCRIPTION",
      "null_percentage": 0,
      "type": "Dataset Column",
      "dataset": "Airport Codes",
      "column": "TYPE",
      "selectionStyle": "random",
      "formula": ""
    },
    {
      "name": "ARRPORT.BOOKS.PASSGS.TELS.PASSENGERS_ORDINAL",
      "null_percentage": 0,
      "type": "Digit Sequence",
      "format": "##",
      "formula": ""
    },
    {
      "name": "ARRPORT.BOOKS.PASSGS.TELS.TELEPHONES_ORDINAL",
      "null_percentage": 0,
      "type": "Custom List",
      "values": [
        "##"
      ],
      "selectionStyle": "random",
      "distribution": null,
      "formula": ""
    },
    {
      "name": "ARRPORT.BOOKS.PASSGS.TELS.TELEPHONENUMBER",
      "null_percentage": 0,
      "type": "Phone",
      "format": "+# ### ### ####",
      "formula": ""
    },
    {
      "name": "ARRPORT.BOOKS.PASSGS.TELS.TELEPHONETYPE",
      "null_percentage": 0,
      "type": "Custom List",
      "values": [
        "W",
        "H",
        "M"
      ],
      "selectionStyle": "random",
      "distribution": null,
      "formula": ""
    },
    {
      "name": "ARRPORT.BOOKS.PASSGS.VEH.VEHICLE_ORDINAL",
      "null_percentage": 0,
      "type": "Digit Sequence",
      "format": "######",
      "formula": ""
    },
    {
      "name": "ARRPORT.BOOKS.PASSGS.VEH.VEHICLETYPE",
      "null_percentage": 0,
      "type": "Custom List",
      "values": [
        "Car",
        "Van",
        "Lorry",
        "Tank",
        "Motorcycle"
      ],
      "selectionStyle": "random",
      "distribution": null,
      "formula": ""
    },
    {
      "name": "ARRPORT.BOOKS.PASSGS.VEH.REGISTRATIONNUMBER",
      "null_percentage": 0,
      "type": "Digit Sequence",
      "format": "^^## ^^^",
      "formula": ""
    },
    {
      "name": "ARRPORT.BOOKS.PASSGS.VEH.REGISTRATIONCOUNTRY",
      "null_percentage": 0,
      "type": "Country",
      "countries": [

      ],
      "formula": ""
    },
    {
      "name": "ARRPORT.BOOKS.PASSGS.VEH.VIN",
      "null_percentage": 0,
      "type": "Car VIN",
      "formula": ""
    },
    {
      "name": "ARRPORT.BOOKS.PASSGS.VEH.MAKE",
      "null_percentage": 0,
      "type": "Car Make",
      "formula": ""
    },
    {
      "name": "ARRPORT.BOOKS.PASSGS.VEH.MODEL",
      "null_percentage": 0,
      "type": "Car Model",
      "formula": ""
    },
    {
      "name": "ARRPORT.BOOKS.PASSGS.VEH.YEAR",
      "null_percentage": 0,
      "type": "Car Model Year",
      "formula": ""
    },
    {
      "name": "ARRPORT.BOOKS.PASSGS.EMBPORT.EMBARAKATIONPORT_ORDINAL",
      "null_percentage": 0,
      "type": "Digit Sequence",
      "format": "###",
      "formula": ""
    },
    {
      "name": "ARRPORT.BOOKS.PASSGS.EMBPORT.ADDRESSLINE1",
      "null_percentage": 0,
      "type": "Street Address",
      "formula": ""
    },
    {
      "name": "ARRPORT.BOOKS.PASSGS.EMBPORT.ADDRESSLINE2",
      "null_percentage": 0,
      "type": "Digit Sequence",
      "format": "^@@@@@@@@@",
      "formula": ""
    },
    {
      "name": "ARRPORT.BOOKS.PASSGS.EMBPORT.ADDRESSLINE3",
      "null_percentage": 0,
      "type": "Digit Sequence",
      "format": "^@@@@@@@@@",
      "formula": ""
    },
    {
      "name": "ARRPORT.BOOKS.PASSGS.EMBPORT.ADDRESSLINE4",
      "null_percentage": 0,
      "type": "City",
      "formula": ""
    },
    {
      "name": "ARRPORT.BOOKS.PASSGS.EMBPORT.ADDRESSLINE5",
      "null_percentage": 0,
      "type": "Country",
      "countries": [

      ],
      "formula": ""
    },
    {
      "name": "ARRPORT.BOOKS.PASSGS.EMBPORT.POSTCODE",
      "null_percentage": 0,
      "type": "Postal Code",
      "formula": ""
    },
    {
      "name": "ARRPORT.BOOKS.PASSGS.EMBPORT.COUNTRY",
      "null_percentage": 0,
      "type": "Country",
      "countries": [

      ],
      "formula": ""
    },
    {
      "name": "ARRPORT.BOOKS.PASSGS.EMBPORT.PORTCODE",
      "null_percentage": 0,
      "type": "Dataset Column",
      "dataset": "Airport Codes",
      "column": "ID",
      "selectionStyle": "random",
      "formula": ""
    },
    {
      "name": "ARRPORT.BOOKS.PASSGS.EMBPORT.IATACODE",
      "null_percentage": 0,
      "type": "Dataset Column",
      "dataset": "Airport Codes",
      "column": "IATA",
      "selectionStyle": "random",
      "formula": ""
    },
    {
      "name": "ARRPORT.BOOKS.PASSGS.EMBPORT.ICAOCODE",
      "null_percentage": 0,
      "type": "Dataset Column",
      "dataset": "Airport Codes",
      "column": "ICAO",
      "selectionStyle": null,
      "formula": ""
    },
    {
      "name": "ARRPORT.BOOKS.PASSGS.EMBPORT.UNLOCODE",
      "null_percentage": 0,
      "type": "Digit Sequence",
      "format": "^@@@@###",
      "formula": ""
    },
    {
      "name": "ARRPORT.BOOKS.PASSGS.EMBPORT.LATITUDE",
      "null_percentage": 0,
      "type": "Dataset Column",
      "dataset": "Airport Codes",
      "column": "LATITUDE",
      "selectionStyle": null,
      "formula": ""
    },
    {
      "name": "ARRPORT.BOOKS.PASSGS.EMBPORT.LONGITUDE",
      "null_percentage": 0,
      "type": "Dataset Column",
      "dataset": "Airport Codes",
      "column": "LONGITUDE",
      "selectionStyle": null,
      "formula": ""
    },
    {
      "name": "ARRPORT.BOOKS.PASSGS.EMBPORT.DESCRIPTION",
      "null_percentage": 0,
      "type": "Dataset Column",
      "dataset": "Airport Codes",
      "column": "TYPE",
      "selectionStyle": null,
      "formula": ""
    },
    {
      "name": "ARRPORT.BOOKS.PASSGS.HOMEADD.HOMEADDRESS_ORDINAL",
      "null_percentage": 0,
      "type": "Digit Sequence",
      "format": "^@@@@###",
      "formula": ""
    },
    {
      "name": "ARRPORT.BOOKS.PASSGS.HOMEADD.ADDRESSLINE1",
      "null_percentage": 0,
      "type": "Street Address",
      "formula": ""
    },
    {
      "name": "ARRPORT.BOOKS.PASSGS.HOMEADD.ADDRESSLINE2",
      "null_percentage": 0,
      "type": "Digit Sequence",
      "format": "^@@@@@@@@@",
      "formula": ""
    },
    {
      "name": "ARRPORT.BOOKS.PASSGS.HOMEADD.ADDRESSLINE3",
      "null_percentage": 0,
      "type": "Digit Sequence",
      "format": "^@@@@@@@@@",
      "formula": ""
    },
    {
      "name": "ARRPORT.BOOKS.PASSGS.HOMEADD.ADDRESSLINE4",
      "null_percentage": 0,
      "type": "City",
      "formula": ""
    },
    {
      "name": "ARRPORT.BOOKS.PASSGS.HOMEADD.ADDRESSLINE5",
      "null_percentage": 0,
      "type": "Country",
      "countries": [

      ],
      "formula": ""
    },
    {
      "name": "ARRPORT.BOOKS.PASSGS.HOMEADD.POSTCODE",
      "null_percentage": 0,
      "type": "Postal Code",
      "formula": ""
    },
    {
      "name": "ARRPORT.BOOKS.PASSGS.HOMEADD.COUNTRY",
      "null_percentage": 0,
      "type": "Country",
      "countries": [

      ],
      "formula": ""
    },
    {
      "name": "ARRPORT.BOOKS.PASSGS.HOMEADD.PORTCODE",
      "null_percentage": 0,
      "type": "Dataset Column",
      "dataset": "Airport Codes",
      "column": "ID",
      "selectionStyle": "random",
      "formula": ""
    },
    {
      "name": "ARRPORT.BOOKS.PASSGS.HOMEADD.IATACODE",
      "null_percentage": 0,
      "type": "Dataset Column",
      "dataset": "Airport Codes",
      "column": "IATA",
      "selectionStyle": null,
      "formula": ""
    },
    {
      "name": "ARRPORT.BOOKS.PASSGS.HOMEADD.ICAOCODE",
      "null_percentage": 0,
      "type": "Dataset Column",
      "dataset": "Airport Codes",
      "column": "ICAO",
      "selectionStyle": null,
      "formula": ""
    },
    {
      "name": "ARRPORT.BOOKS.PASSGS.HOMEADD.UNLOCODE",
      "null_percentage": 0,
      "type": "Digit Sequence",
      "format": "^@@@@###",
      "formula": ""
    },
    {
      "name": "ARRPORT.BOOKS.PASSGS.HOMEADD.LATITUDE",
      "null_percentage": 0,
      "type": "Dataset Column",
      "dataset": "Airport Codes",
      "column": "LATITUDE",
      "selectionStyle": null,
      "formula": ""
    },
    {
      "name": "ARRPORT.BOOKS.PASSGS.HOMEADD.LONGITUDE",
      "null_percentage": 0,
      "type": "Dataset Column",
      "dataset": "Airport Codes",
      "column": "LONGITUDE",
      "selectionStyle": null,
      "formula": ""
    },
    {
      "name": "ARRPORT.BOOKS.PASSGS.HOMEADD.DESCRIPTION",
      "null_percentage": 0,
      "type": "Dataset Column",
      "dataset": "Airport Codes",
      "column": "TYPE",
      "selectionStyle": null,
      "formula": ""
    },
    {
      "name": "ARRPORT.BOOKS.PAYMENTS.PAYMENTS_ORDINAL",
      "null_percentage": 0,
      "type": "Digit Sequence",
      "format": "###",
      "formula": ""
    },
    {
      "name": "ARRPORT.BOOKS.PAYMENTS.TYPE",
      "null_percentage": 0,
      "type": "Custom List",
      "values": [
        "Card",
        "Cash",
        "Cheque"
      ],
      "selectionStyle": "random",
      "distribution": null,
      "formula": ""
    },
    {
      "name": "ARRPORT.BOOKS.PAYMENTS.AMOUNT",
      "null_percentage": 0,
      "type": "Money",
      "min": 0,
      "max": 100000,
      "symbol": "$",
      "formula": ""
    },
    {
      "name": "ARRPORT.BOOKS.PAYMENTS.PAYMENTDATA",
      "null_percentage": 0,
      "type": "Digit Sequence",
      "format": "^@@@@### @@@@@@@@ #####",
      "formula": ""
    },
    {
      "name": "ARRPORT.BOOKS.PAYMENTS.PAYMENTSEQ",
      "null_percentage": 0,
      "type": "Digit Sequence",
      "format": "##",
      "formula": ""
    },
    {
      "name": "ARRPORT.BOOKS.TKTS.TICKETS_ORDINAL",
      "null_percentage": 0,
      "type": "Digit Sequence",
      "format": "##",
      "formula": ""
    },
    {
      "name": "ARRPORT.BOOKS.TKTS.TICKETNUMBER",
      "null_percentage": 0,
      "type": "Digit Sequence",
      "format": "#",
      "formula": ""
    },
    {
      "name": "//ARRPORT.BOOKS.TKTS.TICKETISSUEDATE",
      "null_percentage": 0,
      "type": "Custom List",
      "values": [
        "?"
      ],
      "selectionStyle": "random",
      "distribution": null,
      "formula": ""
    },
    {
      "name": "//ARRPORT.BOOKS.TKTS.TICKETSEQ",
      "null_percentage": 0,
      "type": "Custom List",
      "values": [
        "?"
      ],
      "selectionStyle": "random",
      "distribution": null,
      "formula": ""
    },
    {
      "name": "ARRPORT.BOOKS.PORTOFDIS.PORTOFDISEMBARKATION_ORDINAL",
      "null_percentage": 0,
      "type": "Digit Sequence",
      "format": "##",
      "formula": ""
    },
    {
      "name": "ARRPORT.BOOKS.PORTOFDIS.ADDRESSLINE1",
      "null_percentage": 0,
      "type": "Street Address",
      "formula": ""
    },
    {
      "name": "ARRPORT.BOOKS.PORTOFDIS.ADDRESSLINE2",
      "null_percentage": 0,
      "type": "Digit Sequence",
      "format": "^@@@@@@@@@",
      "formula": ""
    },
    {
      "name": "ARRPORT.BOOKS.PORTOFDIS.ADDRESSLINE3",
      "null_percentage": 0,
      "type": "Digit Sequence",
      "format": "^@@@@@@@@@",
      "formula": ""
    },
    {
      "name": "ARRPORT.BOOKS.PORTOFDIS.ADDRESSLINE4",
      "null_percentage": 0,
      "type": "City",
      "formula": ""
    },
    {
      "name": "ARRPORT.BOOKS.PORTOFDIS.ADDRESSLINE5",
      "null_percentage": 0,
      "type": "Country",
      "countries": [

      ],
      "formula": ""
    },
    {
      "name": "ARRPORT.BOOKS.PORTOFDIS.POSTCODE",
      "null_percentage": 0,
      "type": "Postal Code",
      "formula": ""
    },
    {
      "name": "ARRPORT.BOOKS.PORTOFDIS.COUNTRY",
      "null_percentage": 0,
      "type": "Country",
      "countries": [

      ],
      "formula": ""
    },
    {
      "name": "ARRPORT.BOOKS.PORTOFDIS.PORTCODE",
      "null_percentage": 0,
      "type": "Dataset Column",
      "dataset": "Airport Codes",
      "column": "ID",
      "selectionStyle": "random",
      "formula": ""
    },
    {
      "name": "ARRPORT.BOOKS.PORTOFDIS.IATACODE",
      "null_percentage": 0,
      "type": "Dataset Column",
      "dataset": "Airport Codes",
      "column": "IATA",
      "selectionStyle": null,
      "formula": ""
    },
    {
      "name": "ARRPORT.BOOKS.PORTOFDIS.ICAOCODE",
      "null_percentage": 0,
      "type": "Dataset Column",
      "dataset": "Airport Codes",
      "column": "ICAO",
      "selectionStyle": null,
      "formula": ""
    },
    {
      "name": "ARRPORT.BOOKS.PORTOFDIS.UNLOCODE",
      "null_percentage": 0,
      "type": "Digit Sequence",
      "format": "^@@@@###",
      "formula": ""
    },
    {
      "name": "ARRPORT.BOOKS.PORTOFDIS.LATITUDE",
      "null_percentage": 0,
      "type": "Dataset Column",
      "dataset": "Airport Codes",
      "column": "LATITUDE",
      "selectionStyle": null,
      "formula": ""
    },
    {
      "name": "ARRPORT.BOOKS.PORTOFDIS.LONGITUDE",
      "null_percentage": 0,
      "type": "Dataset Column",
      "dataset": "Airport Codes",
      "column": "LONGITUDE",
      "selectionStyle": null,
      "formula": ""
    },
    {
      "name": "ARRPORT.BOOKS.PORTOFDIS.DESCRIPTION",
      "null_percentage": 0,
      "type": "Dataset Column",
      "dataset": "Airport Codes",
      "column": "TYPE",
      "selectionStyle": null,
      "formula": ""
    },
    {
      "name": "ARRPORT.BOOKS.PORTOFEMB.PORTOFDISEMBARKATION_ORDINAL",
      "null_percentage": 0,
      "type": "Digit Sequence",
      "format": "##",
      "formula": ""
    },
    {
      "name": "ARRPORT.BOOKS.PORTOFEMB.ADDRESSLINE1",
      "null_percentage": 0,
      "type": "Street Address",
      "formula": ""
    },
    {
      "name": "ARRPORT.BOOKS.PORTOFEMB.ADDRESSLINE2",
      "null_percentage": 0,
      "type": "Digit Sequence",
      "format": "^@@@@@@@@@",
      "formula": ""
    },
    {
      "name": "ARRPORT.BOOKS.PORTOFEMB.ADDRESSLINE3",
      "null_percentage": 0,
      "type": "Digit Sequence",
      "format": "^@@@@@@@@@",
      "formula": ""
    },
    {
      "name": "ARRPORT.BOOKS.PORTOFEMB.ADDRESSLINE4",
      "null_percentage": 0,
      "type": "City",
      "formula": ""
    },
    {
      "name": "ARRPORT.BOOKS.PORTOFEMB.ADDRESSLINE5",
      "null_percentage": 0,
      "type": "Country",
      "countries": [

      ],
      "formula": ""
    },
    {
      "name": "ARRPORT.BOOKS.PORTOFEMB.POSTCODE",
      "null_percentage": 0,
      "type": "Postal Code",
      "formula": ""
    },
    {
      "name": "ARRPORT.BOOKS.PORTOFEMB.COUNTRY",
      "null_percentage": 0,
      "type": "Country",
      "countries": [

      ],
      "formula": ""
    },
    {
      "name": "ARRPORT.BOOKS.PORTOFEMB.PORTCODE",
      "null_percentage": 0,
      "type": "Dataset Column",
      "dataset": "Airport Codes",
      "column": "ID",
      "selectionStyle": "random",
      "formula": ""
    },
    {
      "name": "ARRPORT.BOOKS.PORTOFEMB.IATACODE",
      "null_percentage": 0,
      "type": "Dataset Column",
      "dataset": "Airport Codes",
      "column": "IATA",
      "selectionStyle": null,
      "formula": ""
    },
    {
      "name": "ARRPORT.BOOKS.PORTOFEMB.ICAOCODE",
      "null_percentage": 0,
      "type": "Dataset Column",
      "dataset": "Airport Codes",
      "column": "ICAO",
      "selectionStyle": null,
      "formula": ""
    },
    {
      "name": "ARRPORT.BOOKS.PORTOFEMB.UNLOCODE",
      "null_percentage": 0,
      "type": "Digit Sequence",
      "format": "^@@@@###",
      "formula": ""
    },
    {
      "name": "ARRPORT.BOOKS.PORTOFEMB.LATITUDE",
      "null_percentage": 0,
      "type": "Dataset Column",
      "dataset": "Airport Codes",
      "column": "LATITUDE",
      "selectionStyle": null,
      "formula": ""
    },
    {
      "name": "ARRPORT.BOOKS.PORTOFEMB.LONGITUDE",
      "null_percentage": 0,
      "type": "Dataset Column",
      "dataset": "Airport Codes",
      "column": "LONGITUDE",
      "selectionStyle": null,
      "formula": ""
    },
    {
      "name": "ARRPORT.BOOKS.PORTOFEMB.DESCRIPTION",
      "null_percentage": 0,
      "type": "Dataset Column",
      "dataset": "Airport Codes",
      "column": "TYPE",
      "selectionStyle": "random",
      "formula": ""
    }
  ]
}